{
	"info": {
		"_postman_id": "53e24ce1-9013-4ed7-a96b-1fe296b962ec",
		"name": "bank",
		"schema": "https://schema.getpostman.com/json/collection/v2.1.0/collection.json"
	},
	"item": [
		{
			"name": "createSavingsAccount",
			"request": {
				"method": "POST",
				"header": [],
				"body": {
					"mode": "raw",
					"raw": "{\n\"idClient\":1,\n\"accountNumber\":\"1234\",\n\"accountType\":\"SAVINGS\",\n\"currency\":\"EUR\"\n}",
					"options": {
						"raw": {
							"language": "json"
						}
					}
				},
				"url": {
					"raw": "http://localhost:8080/createSavingsAccount",
					"protocol": "http",
					"host": [
						"localhost"
					],
					"port": "8080",
					"path": [
						"createSavingsAccount"
					]
				}
			},
			"response": []
		}
	],
	"protocolProfileBehavior": {}
}